<svg width="20" height="20" viewBox="0 0 20 20" fill="none" xmlns="http://www.w3.org/2000/svg">
<g id="sort-ascending">
<g id="Frame">
<g id="Group 1">
<path id="Vector" d="M7.26866 12L4.5 14.6L1.73134 12L1 12.7L4.5 16L8 12.7L7.26866 12Z" fill="black"/>
<path id="Vector_2" d="M4.5 15L4.5 3" stroke="black"/>
</g>
<path id="Vector 12" d="M9 15.5H19" stroke="black"/>
<path id="Vector 13" d="M9 12.5H17" stroke="black"/>
<path id="Vector 14" d="M9 6.5H13" stroke="black"/>
<path id="Vector 16" d="M9 3.5H11" stroke="black"/>
<path id="Vector 15" d="M9 9.5H15" stroke="black"/>
</g>
</g>
</svg>
