{
    "incognito": {
        "aliases": ["impersonate", "shadowing"]
    },
    "windowed": {
        "aliases": ["shrink"]
    },
    "fullscreen": {
        "aliases": ["expand"]
    },
    "eye-closed": {
        "aliases": ["hide"]
    },
    "eye": {
        "aliases": ["show", "display"]
    },
    "battery-full": {
        "aliases": ["power", "charge"]
    },
    "battery-half": {
        "aliases": ["power", "charge"]
    },
    "battery-low": {
        "aliases": ["power", "charge"]
    },
    "battery": {
        "aliases": ["power", "charge"]
    },
    "bug": {
        "aliases": ["insect", "vermin"]
    },
    "chart-bar": {
        "aliases": ["data"]
    },
    "chart-line": {
        "aliases": ["data"]
    },
    "chart-pie": {
        "aliases": ["data"]
    },
    "dashboard": {
        "aliases": ["data", "display"]
    },
    "folder-open": {
        "aliases": ["directory"]
    },
    "folders": {
        "aliases": ["directory"]
    },
    "save": {
        "aliases": ["floppy"]
    },
    "terminal": {
        "aliases": ["command line"]
    },
    "album": {
        "aliases": ["photo"]
    },
    "ban": {
        "aliases": ["stop"]
    },
    "bold": {
        "aliases": ["text", "font"]
    },
    "bolt": {
        "aliases": ["flash", "lightning"]
    },
    "camera": {
        "aliases": ["photo"]
    },
    "cart": {
        "aliases": ["shop"]
    },
    "check": {
        "aliases": ["success"]
    },
    "clock": {
        "aliases": ["time"]
    },
    "close": {
        "aliases": ["cross", "times"]
    },
    "code": {
        "aliases": ["html", "tag"]
    },
    "cog": {
        "aliases": ["options", "settings"]
    },
    "comment": {
        "aliases": ["message", "dialog"]
    },
    "commenting": {
        "aliases": ["messaging", "writing"]
    },
    "comments": {
        "aliases": ["messages", "dialogs"]
    },
    "copy": {
        "aliases": ["clone"]
    },
    "credit-card": {
        "aliases": ["payment", "money"]
    },
    "database": {
        "aliases": ["db", "storage"]
    },
    "desktop": {
        "aliases": ["pc", "monitor"]
    },
    "expand": {
        "aliases": ["fullscreen"]
    },
    "folder": {
        "aliases": ["directory"]
    },
    "future": {
        "aliases": ["forward"]
    },
    "grid": {
        "aliases": ["menu", "applications"]
    },
    "happy": {
        "aliases": ["smile", "smiley"]
    },
    "hashtag": {
        "aliases": ["octothorpe", "number sign"]
    },
    "heart": {
        "aliases": ["love"]
    },
    "history": {
        "aliases": ["backwards"]
    },
    "home": {
        "aliases": ["house"]
    },
    "image": {
        "aliases": ["photo"]
    },
    "italic": {
        "aliases": ["text", "font"]
    },
    "laptop": {
        "aliases": ["notebook"]
    },
    "link": {
        "aliases": ["chain"]
    },
    "list": {
        "aliases": ["bullet points"]
    },
    "location": {
        "aliases": ["gps", "coordinates"]
    },
    "lock": {
        "aliases": ["secure"]
    },
    "mail": {
        "aliases": ["envelope"]
    },
    "menu": {
        "aliases": ["hamburger"]
    },
    "microphone": {
        "aliases": ["voice", "record"]
    },
    "minus-circle": {
        "aliases": ["subtraction"]
    },
    "minus": {
        "aliases": ["subtraction"]
    },
    "more-vertical": {
        "aliases": ["options"]
    },
    "more": {
        "aliases": ["options"]
    },
    "move": {
        "aliases": ["drag"]
    },
    "paint-bucket": {
        "aliases": ["fill", "color"]
    },
    "pencil": {
        "aliases": ["edit"]
    },
    "phone-landscape": {
        "aliases": ["smart"]
    },
    "phone": {
        "aliases": ["smart"]
    },
    "plus-circle": {
        "aliases": ["addition"]
    },
    "plus": {
        "aliases": ["addition"]
    },
    "question": {
        "aliases": ["help"]
    },
    "receiver": {
        "aliases": ["phone", "call"]
    },
    "refresh": {
        "aliases": ["update", "reload"]
    },
    "rss": {
        "aliases": ["feed"]
    },
    "search": {
        "aliases": ["magnifying glass"]
    },
    "server": {
        "aliases": ["rack"]
    },
    "settings": {
        "aliases": ["options"]
    },
    "sign-in": {
        "aliases": ["log in"]
    },
    "sign-out": {
        "aliases": ["log out"]
    },
    "social": {
        "aliases": ["share"]
    },
    "star": {
        "aliases": ["rating"]
    },
    "strikethrough": {
        "aliases": ["text", "font"]
    },
    "tablet-landscape": {
        "aliases": ["smart"]
    },
    "tablet": {
        "aliases": ["smart"]
    },
    "trash": {
        "aliases": ["empty", "remove", "delete"]
    },
    "triangle-down": {
        "aliases": ["caret"]
    },
    "triangle-left": {
        "aliases": ["caret"]
    },
    "triangle-right": {
        "aliases": ["caret"]
    },
    "triangle-up": {
        "aliases": ["caret"]
    },
    "tv": {
        "aliases": ["screen", "display", "monitor"]
    },
    "unlock": {
        "aliases": ["secure"]
    },
    "video-camera": {
        "aliases": ["film", "movie"]
    },
    "warning": {
        "aliases": ["exclamation"]
    },
    "world": {
        "aliases": ["internet", "global"]
    }
}
